Data-Science Reactivity: Three Ways - 1 Shiny
…
As you can see, it sources R/aggregate-local.R, which contains our helper functions.

1.2.3 Helper functions

Before writing a Shiny app, I like to write out a set of non-reactive functions that will do the “heavy lifting”. To the extent possible, these are pure functions, which makes it easier to test. I keep these functions in an R folder alongside my app; here’s a link to the actual code.

Just like in the app, we’ll use the palmerpenguins dataset:

# this is not part of the helper functions - it's for exposition here
library("palmerpenguins")
library("tibble")

penguins

# A tibble: 344 × 8
   species island    bill_length_mm bill_depth_mm flipper_length_mm body_mass_g
   <fct>   <fct>              <dbl>         <dbl>             <int>       <int>
 1 Adelie  Torgersen           39.1          18.7               181        3750
 2 Adelie  Torgersen           39.5          17.4               186        3800
 3 Adelie  Torgersen           40.3          18                 195        3250
 4 Adelie  Torgersen           NA            NA                  NA          NA
 5 Adelie  Torgersen           36.7          19.3               193        3450
 6 Adelie  Torgersen           39.3          20.6               190        3650
 7 Adelie  Torgersen           38.9          17.8               181        3625
 8 Adelie  Torgersen           39.2          19.6               195        4675
 9 Adelie  Torgersen           34.1          18.1               193        3475
10 Adelie  Torgersen           42            20.2               190        4250
# … with 334 more rows, and 2 more variables: sex <fct>, year <int>
…
